<?xml version="1.0" encoding="UTF-8"?>
<robot generator="Robot 7.0 (Python 3.12.1 on win32)" generated="2024-05-13T12:49:51.274537" rpa="false" schemaversion="5">
<suite id="s1" name="TestSuite" source="C:\Users\moinm\swapi_test\TestSuite">
<suite id="s1-s1" name="SWAPITests" source="C:\Users\moinm\swapi_test\TestSuite\SWAPITests.robot">
<test id="s1-s1-t1" name="7. Verify swapi /people service pagination boundaries" line="65">
<kw name="Given swapi service is up and running" owner="SWAPIKeywords">
<kw name="GET" owner="RequestsLibrary">
<msg time="2024-05-13T12:49:52.207754" level="INFO">GET Request : url=https://swapi.dev/api/people/ 
 path_url=/api/people/ 
 headers={'User-Agent': 'python-requests/2.31.0', 'Accept-Encoding': 'gzip, deflate', 'Accept': '*/*', 'Connection': 'keep-alive'} 
 body=None 
 </msg>
<msg time="2024-05-13T12:49:52.207754" level="INFO">GET Response : url=https://swapi.dev/api/people/ 
 status=200, reason=OK 
 headers={'Server': 'nginx/1.16.1', 'Date': 'Mon, 13 May 2024 16:49:52 GMT', 'Content-Type': 'application/json', 'Transfer-Encoding': 'chunked', 'Connection': 'keep-alive', 'Vary': 'Accept, Cookie', 'X-Frame-Options': 'SAMEORIGIN', 'ETag': '"b493126da505af6fec015ec116fec193"', 'Allow': 'GET, HEAD, OPTIONS', 'Strict-Transport-Security': 'max-age=15768000'} 
 body={"count":82,"next":"https://swapi.dev/api/people/?page=2","previous":null,"results":[{"name":"Luke Skywalker","height":"172","mass":"77","hair_color":"blond","skin_color":"fair","eye_color":"blue","birth_year":"19BBY","gender":"male","homeworld":"https://swapi.dev/api/planets/1/","films":["https://swapi.dev/api/films/1/","https://swapi.dev/api/films/2/","https://swapi.dev/api/films/3/","https://swapi.dev/api/films/6/"],"species":[],"vehicles":["https://swapi.dev/api/vehicles/14/","https://swapi.dev/api/vehicles/30/"],"starships":["https://swapi.dev/api/starships/12/","https://swapi.dev/api/starships/22/"],"created":"2014-12-09T13:50:51.644000Z","edited":"2014-12-20T21:17:56.891000Z","url":"https://swapi.dev/api/people/1/"},{"name":"C-3PO","height":"167","mass":"75","hair_color":"n/a","skin_color":"gold","eye_color":"yellow","birth_year":"112BBY","gender":"n/a","homeworld":"https://swapi.dev/api/planets/1/","films":["https://swapi.dev/api/films/1/","https://swapi.dev/api/films/2/","https://swapi.dev/api/films/3/","https://swapi.dev/api/films/4/","https://swapi.dev/api/films/5/","https://swapi.dev/api/films/6/"],"species":["https://swapi.dev/api/species/2/"],"vehicles":[],"starships":[],"created":"2014-12-10T15:10:51.357000Z","edited":"2014-12-20T21:17:50.309000Z","url":"https://swapi.dev/api/people/2/"},{"name":"R2-D2","height":"96","mass":"32","hair_color":"n/a","skin_color":"white, blue","eye_color":"red","birth_year":"33BBY","gender":"n/a","homeworld":"https://swapi.dev/api/planets/8/","films":["https://swapi.dev/api/films/1/","https://swapi.dev/api/films/2/","https://swapi.dev/api/films/3/","https://swapi.dev/api/films/4/","https://swapi.dev/api/films/5/","https://swapi.dev/api/films/6/"],"species":["https://swapi.dev/api/species/2/"],"vehicles":[],"starships":[],"created":"2014-12-10T15:11:50.376000Z","edited":"2014-12-20T21:17:50.311000Z","url":"https://swapi.dev/api/people/3/"},{"name":"Darth Vader","height":"202","mass":"136","hair_color":"none","skin_color":"white","eye_color":"yellow","birth_year":"41.9BBY","gender":"male","homeworld":"https://swapi.dev/api/planets/1/","films":["https://swapi.dev/api/films/1/","https://swapi.dev/api/films/2/","https://swapi.dev/api/films/3/","https://swapi.dev/api/films/6/"],"species":[],"vehicles":[],"starships":["https://swapi.dev/api/starships/13/"],"created":"2014-12-10T15:18:20.704000Z","edited":"2014-12-20T21:17:50.313000Z","url":"https://swapi.dev/api/people/4/"},{"name":"Leia Organa","height":"150","mass":"49","hair_color":"brown","skin_color":"light","eye_color":"brown","birth_year":"19BBY","gender":"female","homeworld":"https://swapi.dev/api/planets/2/","films":["https://swapi.dev/api/films/1/","https://swapi.dev/api/films/2/","https://swapi.dev/api/films/3/","https://swapi.dev/api/films/6/"],"species":[],"vehicles":["https://swapi.dev/api/vehicles/30/"],"starships":[],"created":"2014-12-10T15:20:09.791000Z","edited":"2014-12-20T21:17:50.315000Z","url":"https://swapi.dev/api/people/5/"},{"name":"Owen Lars","height":"178","mass":"120","hair_color":"brown, grey","skin_color":"light","eye_color":"blue","birth_year":"52BBY","gender":"male","homeworld":"https://swapi.dev/api/planets/1/","films":["https://swapi.dev/api/films/1/","https://swapi.dev/api/films/5/","https://swapi.dev/api/films/6/"],"species":[],"vehicles":[],"starships":[],"created":"2014-12-10T15:52:14.024000Z","edited":"2014-12-20T21:17:50.317000Z","url":"https://swapi.dev/api/people/6/"},{"name":"Beru Whitesun lars","height":"165","mass":"75","hair_color":"brown","skin_color":"light","eye_color":"blue","birth_year":"47BBY","gender":"female","homeworld":"https://swapi.dev/api/planets/1/","films":["https://swapi.dev/api/films/1/","https://swapi.dev/api/films/5/","https://swapi.dev/api/films/6/"],"species":[],"vehicles":[],"starships":[],"created":"2014-12-10T15:53:41.121000Z","edited":"2014-12-20T21:17:50.319000Z","url":"https://swapi.dev/api/people/7/"},{"name":"R5-D4","height":"97","mass":"32","hair_color":"n/a","skin_color":"white, red","eye_color":"red","birth_year":"unknown","gender":"n/a","homeworld":"https://swapi.dev/api/planets/1/","films":["https://swapi.dev/api/films/1/"],"species":["https://swapi.dev/api/species/2/"],"vehicles":[],"starships":[],"created":"2014-12-10T15:57:50.959000Z","edited":"2014-12-20T21:17:50.321000Z","url":"https://swapi.dev/api/people/8/"},{"name":"Biggs Darklighter","height":"183","mass":"84","hair_color":"black","skin_color":"light","eye_color":"brown","birth_year":"24BBY","gender":"male","homeworld":"https://swapi.dev/api/planets/1/","films":["https://swapi.dev/api/films/1/"],"species":[],"vehicles":[],"starships":["https://swapi.dev/api/starships/12/"],"created":"2014-12-10T15:59:50.509000Z","edited":"2014-12-20T21:17:50.323000Z","url":"https://swapi.dev/api/people/9/"},{"name":"Obi-Wan Kenobi","height":"182","mass":"77","hair_color":"auburn, white","skin_color":"fair","eye_color":"blue-gray","birth_year":"57BBY","gender":"male","homeworld":"https://swapi.dev/api/planets/20/","films":["https://swapi.dev/api/films/1/","https://swapi.dev/api/films/2/","https://swapi.dev/api/films/3/","https://swapi.dev/api/films/4/","https://swapi.dev/api/films/5/","https://swapi.dev/api/films/6/"],"species":[],"vehicles":["https://swapi.dev/api/vehicles/38/"],"starships":["https://swapi.dev/api/starships/48/","https://swapi.dev/api/starships/59/","https://swapi.dev/api/starships/64/","https://swapi.dev/api/starships/65/","https://swapi.dev/api/starships/74/"],"created":"2014-12-10T16:16:29.192000Z","edited":"2014-12-20T21:17:50.325000Z","url":"https://swapi.dev/api/people/10/"}]} 
 </msg>
<msg time="2024-05-13T12:49:52.207754" level="INFO">${response} = &lt;Response [200]&gt;</msg>
<var>${response}</var>
<arg>${swapi_people_url}</arg>
<arg>expected_status=any</arg>
<doc>Sends a GET request.</doc>
<status status="PASS" start="2024-05-13T12:49:51.457490" elapsed="0.750264"/>
</kw>
<kw name="Should Be Equal As Strings" owner="BuiltIn">
<msg time="2024-05-13T12:49:52.208803" level="INFO">Argument types are:
&lt;class 'int'&gt;
&lt;class 'str'&gt;</msg>
<arg>${response.status_code}</arg>
<arg>200</arg>
<doc>Fails if objects are unequal after converting them to strings.</doc>
<status status="PASS" start="2024-05-13T12:49:52.208803" elapsed="0.000000"/>
</kw>
<status status="PASS" start="2024-05-13T12:49:51.456489" elapsed="0.752314"/>
</kw>
<kw name="When I send request for people by page number" owner="SWAPIKeywords">
<kw name="GET" owner="RequestsLibrary">
<msg time="2024-05-13T12:49:52.976430" level="INFO">GET Request : url=https://swapi.dev/api/people/?page=1 
 path_url=/api/people/?page=1 
 headers={'User-Agent': 'python-requests/2.31.0', 'Accept-Encoding': 'gzip, deflate', 'Accept': '*/*', 'Connection': 'keep-alive'} 
 body=None 
 </msg>
<msg time="2024-05-13T12:49:52.976430" level="INFO">GET Response : url=https://swapi.dev/api/people/?page=1 
 status=200, reason=OK 
 headers={'Server': 'nginx/1.16.1', 'Date': 'Mon, 13 May 2024 16:49:52 GMT', 'Content-Type': 'application/json', 'Transfer-Encoding': 'chunked', 'Connection': 'keep-alive', 'Vary': 'Accept, Cookie', 'X-Frame-Options': 'SAMEORIGIN', 'ETag': '"b493126da505af6fec015ec116fec193"', 'Allow': 'GET, HEAD, OPTIONS', 'Strict-Transport-Security': 'max-age=15768000'} 
 body={"count":82,"next":"https://swapi.dev/api/people/?page=2","previous":null,"results":[{"name":"Luke Skywalker","height":"172","mass":"77","hair_color":"blond","skin_color":"fair","eye_color":"blue","birth_year":"19BBY","gender":"male","homeworld":"https://swapi.dev/api/planets/1/","films":["https://swapi.dev/api/films/1/","https://swapi.dev/api/films/2/","https://swapi.dev/api/films/3/","https://swapi.dev/api/films/6/"],"species":[],"vehicles":["https://swapi.dev/api/vehicles/14/","https://swapi.dev/api/vehicles/30/"],"starships":["https://swapi.dev/api/starships/12/","https://swapi.dev/api/starships/22/"],"created":"2014-12-09T13:50:51.644000Z","edited":"2014-12-20T21:17:56.891000Z","url":"https://swapi.dev/api/people/1/"},{"name":"C-3PO","height":"167","mass":"75","hair_color":"n/a","skin_color":"gold","eye_color":"yellow","birth_year":"112BBY","gender":"n/a","homeworld":"https://swapi.dev/api/planets/1/","films":["https://swapi.dev/api/films/1/","https://swapi.dev/api/films/2/","https://swapi.dev/api/films/3/","https://swapi.dev/api/films/4/","https://swapi.dev/api/films/5/","https://swapi.dev/api/films/6/"],"species":["https://swapi.dev/api/species/2/"],"vehicles":[],"starships":[],"created":"2014-12-10T15:10:51.357000Z","edited":"2014-12-20T21:17:50.309000Z","url":"https://swapi.dev/api/people/2/"},{"name":"R2-D2","height":"96","mass":"32","hair_color":"n/a","skin_color":"white, blue","eye_color":"red","birth_year":"33BBY","gender":"n/a","homeworld":"https://swapi.dev/api/planets/8/","films":["https://swapi.dev/api/films/1/","https://swapi.dev/api/films/2/","https://swapi.dev/api/films/3/","https://swapi.dev/api/films/4/","https://swapi.dev/api/films/5/","https://swapi.dev/api/films/6/"],"species":["https://swapi.dev/api/species/2/"],"vehicles":[],"starships":[],"created":"2014-12-10T15:11:50.376000Z","edited":"2014-12-20T21:17:50.311000Z","url":"https://swapi.dev/api/people/3/"},{"name":"Darth Vader","height":"202","mass":"136","hair_color":"none","skin_color":"white","eye_color":"yellow","birth_year":"41.9BBY","gender":"male","homeworld":"https://swapi.dev/api/planets/1/","films":["https://swapi.dev/api/films/1/","https://swapi.dev/api/films/2/","https://swapi.dev/api/films/3/","https://swapi.dev/api/films/6/"],"species":[],"vehicles":[],"starships":["https://swapi.dev/api/starships/13/"],"created":"2014-12-10T15:18:20.704000Z","edited":"2014-12-20T21:17:50.313000Z","url":"https://swapi.dev/api/people/4/"},{"name":"Leia Organa","height":"150","mass":"49","hair_color":"brown","skin_color":"light","eye_color":"brown","birth_year":"19BBY","gender":"female","homeworld":"https://swapi.dev/api/planets/2/","films":["https://swapi.dev/api/films/1/","https://swapi.dev/api/films/2/","https://swapi.dev/api/films/3/","https://swapi.dev/api/films/6/"],"species":[],"vehicles":["https://swapi.dev/api/vehicles/30/"],"starships":[],"created":"2014-12-10T15:20:09.791000Z","edited":"2014-12-20T21:17:50.315000Z","url":"https://swapi.dev/api/people/5/"},{"name":"Owen Lars","height":"178","mass":"120","hair_color":"brown, grey","skin_color":"light","eye_color":"blue","birth_year":"52BBY","gender":"male","homeworld":"https://swapi.dev/api/planets/1/","films":["https://swapi.dev/api/films/1/","https://swapi.dev/api/films/5/","https://swapi.dev/api/films/6/"],"species":[],"vehicles":[],"starships":[],"created":"2014-12-10T15:52:14.024000Z","edited":"2014-12-20T21:17:50.317000Z","url":"https://swapi.dev/api/people/6/"},{"name":"Beru Whitesun lars","height":"165","mass":"75","hair_color":"brown","skin_color":"light","eye_color":"blue","birth_year":"47BBY","gender":"female","homeworld":"https://swapi.dev/api/planets/1/","films":["https://swapi.dev/api/films/1/","https://swapi.dev/api/films/5/","https://swapi.dev/api/films/6/"],"species":[],"vehicles":[],"starships":[],"created":"2014-12-10T15:53:41.121000Z","edited":"2014-12-20T21:17:50.319000Z","url":"https://swapi.dev/api/people/7/"},{"name":"R5-D4","height":"97","mass":"32","hair_color":"n/a","skin_color":"white, red","eye_color":"red","birth_year":"unknown","gender":"n/a","homeworld":"https://swapi.dev/api/planets/1/","films":["https://swapi.dev/api/films/1/"],"species":["https://swapi.dev/api/species/2/"],"vehicles":[],"starships":[],"created":"2014-12-10T15:57:50.959000Z","edited":"2014-12-20T21:17:50.321000Z","url":"https://swapi.dev/api/people/8/"},{"name":"Biggs Darklighter","height":"183","mass":"84","hair_color":"black","skin_color":"light","eye_color":"brown","birth_year":"24BBY","gender":"male","homeworld":"https://swapi.dev/api/planets/1/","films":["https://swapi.dev/api/films/1/"],"species":[],"vehicles":[],"starships":["https://swapi.dev/api/starships/12/"],"created":"2014-12-10T15:59:50.509000Z","edited":"2014-12-20T21:17:50.323000Z","url":"https://swapi.dev/api/people/9/"},{"name":"Obi-Wan Kenobi","height":"182","mass":"77","hair_color":"auburn, white","skin_color":"fair","eye_color":"blue-gray","birth_year":"57BBY","gender":"male","homeworld":"https://swapi.dev/api/planets/20/","films":["https://swapi.dev/api/films/1/","https://swapi.dev/api/films/2/","https://swapi.dev/api/films/3/","https://swapi.dev/api/films/4/","https://swapi.dev/api/films/5/","https://swapi.dev/api/films/6/"],"species":[],"vehicles":["https://swapi.dev/api/vehicles/38/"],"starships":["https://swapi.dev/api/starships/48/","https://swapi.dev/api/starships/59/","https://swapi.dev/api/starships/64/","https://swapi.dev/api/starships/65/","https://swapi.dev/api/starships/74/"],"created":"2014-12-10T16:16:29.192000Z","edited":"2014-12-20T21:17:50.325000Z","url":"https://swapi.dev/api/people/10/"}]} 
 </msg>
<msg time="2024-05-13T12:49:52.978486" level="INFO">${response} = &lt;Response [200]&gt;</msg>
<var>${response}</var>
<arg>url=${swapi_people_url}?page=${page_no}</arg>
<arg>expected_status=any</arg>
<doc>Sends a GET request.</doc>
<status status="PASS" start="2024-05-13T12:49:52.209753" elapsed="0.768733"/>
</kw>
<kw name="Set Suite Variable" owner="BuiltIn">
<msg time="2024-05-13T12:49:52.979433" level="INFO">${response} = &lt;Response [200]&gt;</msg>
<arg>${response}</arg>
<doc>Makes a variable available everywhere within the scope of the current suite.</doc>
<status status="PASS" start="2024-05-13T12:49:52.979433" elapsed="0.000000"/>
</kw>
<arg>1</arg>
<status status="PASS" start="2024-05-13T12:49:52.209753" elapsed="0.769680"/>
</kw>
<kw name="Then Service should return valid response code" owner="SWAPIKeywords">
<kw name="Should Be Equal As Strings" owner="BuiltIn">
<msg time="2024-05-13T12:49:52.981464" level="INFO">Argument types are:
&lt;class 'int'&gt;
&lt;class 'str'&gt;</msg>
<arg>${response.status_code}</arg>
<arg>${expected_response_code}</arg>
<doc>Fails if objects are unequal after converting them to strings.</doc>
<status status="PASS" start="2024-05-13T12:49:52.980434" elapsed="0.001030"/>
</kw>
<arg>200</arg>
<status status="PASS" start="2024-05-13T12:49:52.980434" elapsed="0.001030"/>
</kw>
<kw name="AND previous and next page urls be correct" owner="SWAPIKeywords">
<if>
<branch type="IF" condition="'${previous_page}'=='${EMPTY}'">
<kw name="Should Be Equal As Strings" owner="BuiltIn">
<msg time="2024-05-13T12:49:52.984468" level="INFO">Argument types are:
&lt;class 'NoneType'&gt;
&lt;class 'str'&gt;</msg>
<arg>${response.json()['previous']}</arg>
<arg>None</arg>
<doc>Fails if objects are unequal after converting them to strings.</doc>
<status status="PASS" start="2024-05-13T12:49:52.984468" elapsed="0.000000"/>
</kw>
<status status="PASS" start="2024-05-13T12:49:52.983461" elapsed="0.001007"/>
</branch>
<branch type="ELSE">
<kw name="Should Be Equal As Strings" owner="BuiltIn">
<arg>${response.json()['previous']}</arg>
<arg>${swapi_people_url}?page=${previous_page}</arg>
<doc>Fails if objects are unequal after converting them to strings.</doc>
<status status="NOT RUN" start="2024-05-13T12:49:52.985431" elapsed="0.000000"/>
</kw>
<status status="NOT RUN" start="2024-05-13T12:49:52.984468" elapsed="0.000963"/>
</branch>
<status status="PASS" start="2024-05-13T12:49:52.983461" elapsed="0.001970"/>
</if>
<if>
<branch type="IF" condition="'${next_page}'=='${EMPTY}'">
<kw name="Should Be Equal As Strings" owner="BuiltIn">
<arg>${response.json()['next']}</arg>
<arg>None</arg>
<doc>Fails if objects are unequal after converting them to strings.</doc>
<status status="NOT RUN" start="2024-05-13T12:49:52.986428" elapsed="0.000000"/>
</kw>
<status status="NOT RUN" start="2024-05-13T12:49:52.985431" elapsed="0.000997"/>
</branch>
<branch type="ELSE">
<kw name="Should Be Equal As Strings" owner="BuiltIn">
<arg>${response.json()['next']}</arg>
<arg>${swapi_people_url}?page=${next_page}</arg>
<doc>Fails if objects are unequal after converting them to strings.</doc>
<status status="PASS" start="2024-05-13T12:49:52.986428" elapsed="0.000000"/>
</kw>
<status status="PASS" start="2024-05-13T12:49:52.986428" elapsed="0.000000"/>
</branch>
<status status="PASS" start="2024-05-13T12:49:52.985431" elapsed="0.000997"/>
</if>
<arg>${EMPTY}</arg>
<arg>2</arg>
<status status="PASS" start="2024-05-13T12:49:52.982430" elapsed="0.005029"/>
</kw>
<kw name="When I send request for people by page number" owner="SWAPIKeywords">
<kw name="GET" owner="RequestsLibrary">
<msg time="2024-05-13T12:49:53.711930" level="INFO">GET Request : url=https://swapi.dev/api/people/?page=9 
 path_url=/api/people/?page=9 
 headers={'User-Agent': 'python-requests/2.31.0', 'Accept-Encoding': 'gzip, deflate', 'Accept': '*/*', 'Connection': 'keep-alive'} 
 body=None 
 </msg>
<msg time="2024-05-13T12:49:53.711930" level="INFO">GET Response : url=https://swapi.dev/api/people/?page=9 
 status=200, reason=OK 
 headers={'Server': 'nginx/1.16.1', 'Date': 'Mon, 13 May 2024 16:49:53 GMT', 'Content-Type': 'application/json', 'Transfer-Encoding': 'chunked', 'Connection': 'keep-alive', 'Vary': 'Accept, Cookie', 'X-Frame-Options': 'SAMEORIGIN', 'ETag': '"7f06357b2990e189b232f16657b428df"', 'Allow': 'GET, HEAD, OPTIONS', 'Strict-Transport-Security': 'max-age=15768000'} 
 body={"count":82,"next":null,"previous":"https://swapi.dev/api/people/?page=8","results":[{"name":"Sly Moore","height":"178","mass":"48","hair_color":"none","skin_color":"pale","eye_color":"white","birth_year":"unknown","gender":"female","homeworld":"https://swapi.dev/api/planets/60/","films":["https://swapi.dev/api/films/5/","https://swapi.dev/api/films/6/"],"species":[],"vehicles":[],"starships":[],"created":"2014-12-20T20:18:37.619000Z","edited":"2014-12-20T21:17:50.496000Z","url":"https://swapi.dev/api/people/82/"},{"name":"Tion Medon","height":"206","mass":"80","hair_color":"none","skin_color":"grey","eye_color":"black","birth_year":"unknown","gender":"male","homeworld":"https://swapi.dev/api/planets/12/","films":["https://swapi.dev/api/films/6/"],"species":["https://swapi.dev/api/species/37/"],"vehicles":[],"starships":[],"created":"2014-12-20T20:35:04.260000Z","edited":"2014-12-20T21:17:50.498000Z","url":"https://swapi.dev/api/people/83/"}]} 
 </msg>
<msg time="2024-05-13T12:49:53.711930" level="INFO">${response} = &lt;Response [200]&gt;</msg>
<var>${response}</var>
<arg>url=${swapi_people_url}?page=${page_no}</arg>
<arg>expected_status=any</arg>
<doc>Sends a GET request.</doc>
<status status="PASS" start="2024-05-13T12:49:52.987459" elapsed="0.725469"/>
</kw>
<kw name="Set Suite Variable" owner="BuiltIn">
<msg time="2024-05-13T12:49:53.713953" level="INFO">${response} = &lt;Response [200]&gt;</msg>
<arg>${response}</arg>
<doc>Makes a variable available everywhere within the scope of the current suite.</doc>
<status status="PASS" start="2024-05-13T12:49:53.712928" elapsed="0.002023"/>
</kw>
<arg>9</arg>
<status status="PASS" start="2024-05-13T12:49:52.987459" elapsed="0.727492"/>
</kw>
<kw name="Then Service should return valid response code" owner="SWAPIKeywords">
<kw name="Should Be Equal As Strings" owner="BuiltIn">
<msg time="2024-05-13T12:49:53.719947" level="INFO">Argument types are:
&lt;class 'int'&gt;
&lt;class 'str'&gt;</msg>
<arg>${response.status_code}</arg>
<arg>${expected_response_code}</arg>
<doc>Fails if objects are unequal after converting them to strings.</doc>
<status status="PASS" start="2024-05-13T12:49:53.717937" elapsed="0.002010"/>
</kw>
<arg>200</arg>
<status status="PASS" start="2024-05-13T12:49:53.716957" elapsed="0.004035"/>
</kw>
<kw name="AND previous and next page urls be correct" owner="SWAPIKeywords">
<if>
<branch type="IF" condition="'${previous_page}'=='${EMPTY}'">
<kw name="Should Be Equal As Strings" owner="BuiltIn">
<arg>${response.json()['previous']}</arg>
<arg>None</arg>
<doc>Fails if objects are unequal after converting them to strings.</doc>
<status status="NOT RUN" start="2024-05-13T12:49:53.725970" elapsed="0.000000"/>
</kw>
<status status="NOT RUN" start="2024-05-13T12:49:53.724936" elapsed="0.001034"/>
</branch>
<branch type="ELSE">
<kw name="Should Be Equal As Strings" owner="BuiltIn">
<arg>${response.json()['previous']}</arg>
<arg>${swapi_people_url}?page=${previous_page}</arg>
<doc>Fails if objects are unequal after converting them to strings.</doc>
<status status="PASS" start="2024-05-13T12:49:53.725970" elapsed="0.000991"/>
</kw>
<status status="PASS" start="2024-05-13T12:49:53.725970" elapsed="0.000991"/>
</branch>
<status status="PASS" start="2024-05-13T12:49:53.724936" elapsed="0.002025"/>
</if>
<if>
<branch type="IF" condition="'${next_page}'=='${EMPTY}'">
<kw name="Should Be Equal As Strings" owner="BuiltIn">
<msg time="2024-05-13T12:49:53.728962" level="INFO">Argument types are:
&lt;class 'NoneType'&gt;
&lt;class 'str'&gt;</msg>
<arg>${response.json()['next']}</arg>
<arg>None</arg>
<doc>Fails if objects are unequal after converting them to strings.</doc>
<status status="PASS" start="2024-05-13T12:49:53.727958" elapsed="0.001004"/>
</kw>
<status status="PASS" start="2024-05-13T12:49:53.726961" elapsed="0.002001"/>
</branch>
<branch type="ELSE">
<kw name="Should Be Equal As Strings" owner="BuiltIn">
<arg>${response.json()['next']}</arg>
<arg>${swapi_people_url}?page=${next_page}</arg>
<doc>Fails if objects are unequal after converting them to strings.</doc>
<status status="NOT RUN" start="2024-05-13T12:49:53.728962" elapsed="0.000000"/>
</kw>
<status status="NOT RUN" start="2024-05-13T12:49:53.728962" elapsed="0.000000"/>
</branch>
<status status="PASS" start="2024-05-13T12:49:53.726961" elapsed="0.002001"/>
</if>
<arg>8</arg>
<arg>${EMPTY}</arg>
<status status="PASS" start="2024-05-13T12:49:53.722932" elapsed="0.006030"/>
</kw>
<tag>test</tag>
<status status="PASS" start="2024-05-13T12:49:51.455477" elapsed="2.274496"/>
</test>
<doc>This test suite contains scenarios for validating the swapi service people endpoint.
Following use cases are covered:
Test people endpoint returns total count of people with 10 results per page.
Test people endpoint returns specific people resource per id passed in request.
Test people endpoint returns 404 when searched by invalid people id.
Test people endpoint returns matching people's resources when searched by name.
Test people endpoint returns empty results when searched by missing name from star wars family.</doc>
<status status="PASS" start="2024-05-13T12:49:51.302404" elapsed="2.429613"/>
</suite>
<status status="PASS" start="2024-05-13T12:49:51.276546" elapsed="2.458470"/>
</suite>
<statistics>
<total>
<stat pass="1" fail="0" skip="0">All Tests</stat>
</total>
<tag>
<stat pass="1" fail="0" skip="0">test</stat>
</tag>
<suite>
<stat pass="1" fail="0" skip="0" id="s1" name="TestSuite">TestSuite</stat>
<stat pass="1" fail="0" skip="0" id="s1-s1" name="SWAPITests">TestSuite.SWAPITests</stat>
</suite>
</statistics>
<errors>
</errors>
</robot>
